{
  "code": "0000",
  "data": {
    "totalCount": 100,
    "pageSize": 50,
    "currentPage": 1,
    "pageCount": 2,
    "result": [
      {
        "name": "龙娟",
        "date": "2000-07-18",
        "province": "西藏自治区",
        "city": "宁德市",
        "zip": "426175",
        "address": "宁德市高除始路332号",
        "education": "本科",
        "occupation": "Java工程师"
      },
      {
        "name": "秦丽",
        "date": "2019-05-11",
        "province": "新疆维吾尔自治区",
        "city": "朔州市",
        "zip": "605475",
        "address": "朔州市总公书省路972号",
        "education": "大专",
        "occupation": "DBA"
      }
    ]
  }
}