{
    "code":"0000",
    "data":{
    "result":[
    {
        "order_id":10000001359573043,
        "station_id":9081,
        "source_store_id":12,
        "produce_store_id":12,
        "delivery_store_id":12,
        "source_store_name":"科大店",
        "produce_store_name":"科大店",
        "delivery_store_name":"科大店",
        "source_sap_id":1019,
        "produce_sap_id":1019,
        "delivery_sap_id":1019,
        "carrier":-1,
        "carrier_name":"",
        "carrier_type":-1,
        "production_push_time":1618436581000,
        "shipment_date":1618376400000,
        "shipment_time":"16:43-17:14",
        "shipment_type":1,
        "order_status":128,
        "status_code":135,
        "sale_type":1,
        "trade_type":1,
        "vender_id":1,
        "erp_store_id":12,
        "webuser_id":54024143,
        "pin":"7e4501eb-2b48-4e06-8795-01df8e594039",
        "order_created_time":1618436567000,
        "sub_order_type":0,
        "production_type":14,
        "storeroom_id":5,
        "storeroom_name":"北京物美O2O商品库",
        "created":1618436580000,
        "modified":1618437034000,
        "yn":true
    },
    {
        "order_id":10000001359573287,
        "station_id":471,
        "source_store_id":12673,
        "produce_store_id":12673,
        "delivery_store_id":12673,
        "source_store_name":"无锡锡山商场",
        "produce_store_name":"无锡锡山商场",
        "delivery_store_name":"无锡锡山商场",
        "source_sap_id":11,
        "produce_sap_id":11,
        "delivery_sap_id":11,
        "carrier":-1,
        "carrier_name":"",
        "carrier_type":-1,
        "production_push_time":1618437195000,
        "road_area_id":1272,
        "road_area_name":"A",
        "shipment_date":1623474000000,
        "shipment_time":"00:00-23:59",
        "shipment_type":1,
        "order_status":4,
        "status_code":5,
        "sale_type":58,
        "trade_type":37,
        "vender_id":86,
        "erp_store_id":12673,
        "webuser_id":96815287,
        "pin":"c9916b99-f246-4644-8071-14e405d31680",
        "order_created_time":1618437184000,
        "sub_order_type":0,
        "production_type":91,
        "storeroom_id":4,
        "created":1618437195000,
        "modified":1618437195000,
        "yn":true
    }]
    },
    "currentPage":1,
    "pageCount":10,
    "totalCount":100,
    "pageSize":10
}